Time,Tvoltage
1,3.332928833
2,3.344270667
3,3.347003221
4,3.350663866
5,3.35187395
6,3.352716667
7,3.35394958
8,3.354596639
9,3.35505042
10,3.354252101
11,3.354260504
12,3.353725
13,3.351848739
14,3.349907563
15,3.348983193
16,3.347243697
17,3.346091667
18,3.345453782
19,3.345630252
20,3.346915966
21,3.347579832
22,3.348766667
23,3.350294118
24,3.351932773
25,3.352647059
26,3.353831933
27,3.355058333
28,3.355915966
29,3.355546218
30,3.355462185
31,3.355647059
32,3.3552
33,3.35287395
34,3.351890756
35,3.350386555
36,3.349613445
37,3.342739496
38,3.341416667
39,3.341310924
40,3.342546218
41,3.343487395
42,3.344016807
43,3.344291667
44,3.341613445
45,3.341638655
46,3.342252101
47,3.343672269
48,3.346075
49,3.353383333
50,3.360201681
51,3.359470588
52,3.358773109
53,3.35765
54,3.357697479
55,3.356470588
56,3.356285714
57,3.355462185
58,3.3389
59,3.321411765
60,3.320714286
61,3.324680672
62,3.329571429
63,3.332941667
64,3.336201681
65,3.339151261
66,3.340647059
67,3.342201681
68,3.343840336
69,3.344883333
70,3.34592437
71,3.34697479
72,3.34692437
73,3.346109244
74,3.345883333
75,3.346361345
76,3.346655462
77,3.346420168
78,3.346571429
79,3.345275
80,3.343168067
81,3.341764706
82,3.339941176
83,3.338781513
84,3.336783333
85,3.334840336
86,3.331705882
87,3.329512605
88,3.330697479
89,3.332433333
90,3.334159664
91,3.336302521
92,3.337605042
93,3.338680672
94,3.339882353
95,3.339708333
96,3.341193277
97,3.341663866
98,3.341722689
99,3.342302521
100,3.342058333
101,3.341294118
102,3.340495798
103,3.339058824
104,3.338319328
105,3.336875
106,3.336848739
107,3.334647059
108,3.333722689
109,3.332369748
110,3.33225
111,3.332731092
112,3.331512605
113,3.330117647
114,3.330546218
115,3.3309
116,3.331176471
117,3.331932773
118,3.332218487
119,3.332285714
120,3.333166667
121,3.332798319
122,3.332428571
123,3.333117647
124,3.332537815
125,3.332747899
126,3.331783333
127,3.330537815
128,3.329806723
129,3.328084034
130,3.324823529
131,3.320991667
132,3.319218487
133,3.317176471
134,3.314327731
135,3.311109244
136,3.309991667
137,3.311210084
138,3.311591667
139,3.312504202
140,3.313705882
141,3.315366667
142,3.316521008
143,3.318352941
144,3.320596639
145,3.321243697
146,3.3208
147,3.320991597
148,3.32102521
149,3.321268908
150,3.321436975
151,3.320941176
152,3.321266667
153,3.321705882
154,3.321201681
155,3.319319328
156,3.317495798
157,3.317116667
158,3.314638655
159,3.313428571
160,3.311638655
161,3.310957983
162,3.311416667
163,3.311731092
164,3.312084034
165,3.313563025
166,3.314655462
167,3.31555
168,3.316605042
169,3.317226891
170,3.317470588
171,3.318008403
172,3.318425
173,3.317142857
174,3.309764706
175,3.306420168
176,3.306445378
177,3.307658333
178,3.308084034
179,3.308436975
180,3.30902521
181,3.307697479
182,3.306285714
183,3.307233333
184,3.305420168
185,3.304932773
186,3.31235
187,3.321571429
188,3.3242
189,3.324823529
190,3.324840336
191,3.324941176
192,3.324092437
193,3.322725
194,3.321386555
195,3.318260504
196,3.311655462
197,3.30802521
198,3.305808333
199,3.305529412
200,3.305478992
201,3.304907563
202,3.305848739
203,3.305275
204,3.303882353
205,3.304210084
206,3.30602521
207,3.308319328
208,3.310563025
209,3.3118
210,3.31307563
211,3.313680672
212,3.314159664
213,3.314571429
214,3.314733333
215,3.314756303
216,3.314319328
217,3.311865546
218,3.308529412
219,3.305116667
220,3.301722689
221,3.298689076
222,3.29902521
223,3.298134454
224,3.297225
225,3.29592437
226,3.295210084
227,3.294218487
228,3.293831933
229,3.294791667
230,3.296831933
231,3.299798319
232,3.301798319
233,3.303647059
234,3.30555
235,3.306907563
236,3.307546218
237,3.308184874
238,3.308159664
239,3.308882353
240,3.308558333
241,3.307798319
242,3.307302521
243,3.307789916
244,3.308058824
245,3.308966667
246,3.308613445
247,3.308596639
248,3.308865546
249,3.30887395
250,3.308566667
251,3.30907563
252,3.309302521
253,3.31010084
254,3.310260504
255,3.309716667
256,3.310361345
257,3.309680672
258,3.310016807
259,3.310487395
260,3.30955
261,3.309470588
262,3.309067227
263,3.308722689
264,3.307857143
265,3.308016807
266,3.307558333
267,3.307613445
268,3.30694958
269,3.305621849
270,3.304058824
271,3.302433333
272,3.302184874
273,3.300932773
274,3.300798319
275,3.300453782
276,3.30075
277,3.301470588
278,3.301991667
279,3.301697479
280,3.301857143
281,3.302608333
282,3.302470588
283,3.303336134
284,3.303117647
285,3.303512605
286,3.302875
287,3.302352941
288,3.302647059
289,3.302117647
290,3.301008403
291,3.298458333
292,3.296840336
293,3.296226891
294,3.295596639
295,3.296781513
296,3.295907563
297,3.297183333
298,3.296848739
299,3.297226891
300,3.297378151
301,3.297915966
302,3.298683333
303,3.29894958
304,3.299067227
305,3.299546218
306,3.30010084
307,3.299983333
308,3.299991597
309,3.298983193
310,3.299008403
311,3.298579832
312,3.29835
313,3.29810084
314,3.298184874
315,3.296302521
316,3.294865546
317,3.29495
318,3.294403361
319,3.292815126
320,3.291193277
321,3.289168067
322,3.287344538
323,3.287416667
324,3.287403361
325,3.288042017
326,3.289277311
327,3.289563025
328,3.2904
329,3.291151261
330,3.29110084
331,3.291201681
332,3.291747899
333,3.291375
334,3.29187395
335,3.291756303
336,3.291840336
337,3.290285714
338,3.282858333
339,3.277529412
340,3.275504202
341,3.275268908
342,3.276109244
343,3.276608333
344,3.276016807
345,3.275966387
346,3.278142857
347,3.278151261
348,3.279478992
349,3.291371901
350,3.303151261
351,3.303915966
352,3.303554622
353,3.303436975
354,3.302791667
355,3.302504202
356,3.301630252
357,3.301151261
358,3.299210084
359,3.297283333
360,3.295605042
361,3.295210084
362,3.29412605
363,3.29287395
364,3.29235
365,3.290403361
366,3.281504202
367,3.276932773
368,3.275310924
369,3.2749
370,3.275529412
371,3.277117647
372,3.278352941
373,3.280260504
374,3.281883333
375,3.282890756
376,3.283621849
377,3.284470588
378,3.285033613
379,3.285546218
380,3.286491667
381,3.285596639
382,3.285210084
383,3.284235294
384,3.28212605
385,3.28165
386,3.280361345
387,3.277941176
388,3.275983193
389,3.275378151
390,3.275725
391,3.275336134
392,3.275134454
393,3.274865546
394,3.27587395
395,3.276258333
396,3.276941176
397,3.278336134
398,3.279336134
399,3.279756303
400,3.279675
401,3.279638655
402,3.280184874
403,3.279966387
404,3.280176471
405,3.2802
406,3.279243697
407,3.279361345
408,3.278932773
409,3.279218487
410,3.279638655
411,3.2794
412,3.278529412
413,3.279268908
414,3.278781513
415,3.279596639
416,3.27955
417,3.28010084
418,3.27989916
419,3.280336134
420,3.28010084
421,3.280808333
422,3.281092437
423,3.280201681
424,3.280823529
425,3.280806723
426,3.280491667
427,3.280554622
428,3.280579832
429,3.280596639
430,3.279184874
431,3.276891667
432,3.275697479
433,3.274285714
434,3.272268908
435,3.271277311
436,3.27092437
437,3.270591667
438,3.269689076
439,3.269470588
440,3.269571429
441,3.27
442,3.270941667
443,3.270957983
444,3.271341667
445,3.270966387
446,3.271058824
447,3.271275
448,3.270184874
449,3.270613445
450,3.271428571
451,3.27192437
452,3.272358333
453,3.272756303
454,3.272394958
455,3.272756303
456,3.27202521
457,3.271233333
458,3.271042017
459,3.270554622
460,3.269890756
461,3.27
462,3.269808333
463,3.269747899
464,3.269815126
465,3.268714286
466,3.269352941
467,3.268773109
468,3.269041667
469,3.269630252
470,3.269344538
471,3.270453782
472,3.270436975
473,3.270283333
474,3.270865546
475,3.269722689
476,3.270067227
477,3.270613445
478,3.2692
479,3.267647059
480,3.266159664
481,3.266117647
482,3.265537815
483,3.2649
484,3.263588235
485,3.262596639
486,3.262512605
487,3.261285714
488,3.26075
489,3.260621849
490,3.261058824
491,3.261714286
492,3.262453782
493,3.262966387
494,3.263391667
495,3.263159664
496,3.263773109
497,3.263596639
498,3.2632
499,3.262941667
500,3.26287395
501,3.263033613
502,3.264067227
503,3.26392437
504,3.264625
505,3.265176471
506,3.264865546
507,3.265277311
508,3.264731092
509,3.264116667
510,3.264537815
511,3.264327731
512,3.265
513,3.264428571
514,3.263616667
515,3.263932773
516,3.272583333
517,3.281016807
518,3.282142857
519,3.281258333
520,3.281218487
521,3.281159664
522,3.27994958
523,3.278260504
524,3.27694958
525,3.275458333
526,3.274605042
527,3.273495798
528,3.272941176
529,3.27302521
530,3.271333333
531,3.269352941
532,3.267218487
533,3.266176471
534,3.265369748
535,3.265583333
536,3.265546218
537,3.26602521
538,3.266218487
539,3.267596639
540,3.267016667
541,3.267016807
542,3.267218487
543,3.26705042
544,3.267226891
545,3.267158333
546,3.26694958
547,3.267134454
548,3.265411765
549,3.264302521
550,3.26292437
551,3.26235
552,3.260781513
553,3.260789916
554,3.259621849
555,3.261067227
556,3.261691667
557,3.262134454
558,3.263092437
559,3.263319328
560,3.263420168
561,3.263083333
562,3.264705882
563,3.265260504
564,3.265008403
565,3.266151261
566,3.266966667
567,3.267268908
568,3.266731092
569,3.266630252
570,3.265546218
571,3.264725
572,3.265117647
573,3.264445378
574,3.264319328
575,3.262697479
576,3.261016667
577,3.258781513
578,3.257495798
579,3.259092437
580,3.257781513
581,3.256890756
582,3.257741667
583,3.258521008
584,3.25905042
585,3.260067227
586,3.260798319
587,3.262058333
588,3.262848739
589,3.263184874
590,3.262647059
591,3.263285714
592,3.262975
593,3.261252101
594,3.261184874
595,3.259134454
596,3.258689076
597,3.257216667
598,3.257764706
599,3.257554622
600,3.25689916
601,3.256109244
602,3.255733333
603,3.254831933
604,3.253773109
605,3.252529412
606,3.251327731
607,3.251554622
608,3.251341667
609,3.251386555
610,3.253042017
611,3.253733333
612,3.253764706
613,3.253875
614,3.253907563
615,3.253932773
616,3.254042017
617,3.254218487
618,3.253025
619,3.251319328
620,3.249722689
621,3.248647059
622,3.247722689
623,3.247233333
624,3.247537815
625,3.247268908
626,3.245470588
627,3.244840336
628,3.244316667
629,3.24397479
630,3.244235294
631,3.244378151
632,3.244201681
633,3.243741667
634,3.245159664
635,3.245512605
636,3.245705882
637,3.246294118
638,3.245655462
639,3.245933333
640,3.245781513
641,3.24610084
642,3.244596639
643,3.242302521
644,3.241341667
645,3.240327731
646,3.239252101
647,3.239327731
648,3.238815126
649,3.238525
650,3.237638655
651,3.236008403
652,3.234378151
653,3.232798319
654,3.233175
655,3.233756303
656,3.234176471
657,3.235655462
658,3.23707563
659,3.242900826
660,3.260134454
661,3.261537815
662,3.261327731
663,3.260697479
664,3.26035
665,3.260117647
666,3.259361345
667,3.258554622
668,3.256831933
669,3.255823529
670,3.255091667
671,3.254680672
672,3.254436975
673,3.254436975
674,3.254428571
675,3.254233333
676,3.25410084
677,3.25292437
678,3.251697479
679,3.250882353
680,3.251191667
681,3.250731092
682,3.251134454
683,3.250890756
684,3.252369748
685,3.252241667
686,3.252420168
687,3.251773109
688,3.252268908
689,3.252386555
690,3.252058333
691,3.250840336
692,3.250848739
693,3.250613445
694,3.250621849
695,3.250840336
696,3.250983333
697,3.25087395
698,3.25012605
699,3.249554622
700,3.248764706
701,3.248308333
702,3.247361345
703,3.248008403
704,3.247865546
705,3.247672269
706,3.247675
707,3.247462185
708,3.247487395
709,3.246806723
710,3.245613445
711,3.246225
712,3.246747899
713,3.246781513
714,3.247042017
715,3.246957983
716,3.2472
717,3.246747899
718,3.247168067
719,3.247067227
720,3.247235294
721,3.246716667
722,3.247210084
723,3.246596639
724,3.246
725,3.245966387
726,3.245436975
727,3.246683333
728,3.246058824
729,3.245470588
730,3.246176471
731,3.245621849
732,3.244808333
733,3.245159664
734,3.244579832
735,3.244403361
736,3.243529412
737,3.241966667
738,3.240957983
739,3.240428571
740,3.23987395
741,3.239252101
742,3.238491667
743,3.238294118
744,3.237689076
745,3.236966387
746,3.237336134
747,3.237208333
748,3.237865546
749,3.23912605
750,3.239193277
751,3.239672269
752,3.239747899
753,3.239958333
754,3.24002521
755,3.240151261
756,3.239092437
757,3.238495798
758,3.236841667
759,3.23594958
760,3.234747899
761,3.233302521
762,3.233605042
763,3.2341
764,3.235184874
765,3.235109244
766,3.235504202
767,3.236134454
768,3.2368
769,3.236487395
770,3.236815126
771,3.237016807
772,3.237352941
773,3.236900826
774,3.237109244
775,3.236806723
776,3.236621849
777,3.236092437
778,3.23565
779,3.235739496
780,3.235008403
781,3.235243697
782,3.234067227
783,3.233983193
784,3.233633333
785,3.233327731
786,3.233310924
787,3.234084034
788,3.234
789,3.234075
790,3.233680672
791,3.23397479
792,3.234176471
793,3.233689076
794,3.23385
795,3.233336134
796,3.232294118
797,3.232058824
798,3.23202521
799,3.232175
800,3.231705882
801,3.232042017
802,3.232
803,3.231663866
804,3.230725
805,3.230588235
806,3.229798319
807,3.23007563
808,3.227478992
809,3.218470588
810,3.210233333
811,3.204932773
812,3.203932773
813,3.202823529
814,3.200806723
815,3.200375
816,3.198689076
817,3.197352941
818,3.195403361
819,3.194848739
820,3.196633333
821,3.199806723
822,3.20307563
823,3.205226891
824,3.2204
825,3.238833333
826,3.240907563
827,3.240932773
828,3.23887395
829,3.235789916
830,3.234916667
831,3.233168067
832,3.232336134
833,3.232294118
834,3.231394958
835,3.232308333
836,3.233294118
837,3.233815126
838,3.234697479
839,3.234201681
840,3.234705882
841,3.234983333
842,3.23602521
843,3.236521008
844,3.236361345
845,3.236504202
846,3.236508333
847,3.237890756
848,3.23687395
849,3.237638655
850,3.237268908
851,3.2366
852,3.23602521
853,3.235109244
854,3.235294118
855,3.235394958
856,3.235525
857,3.235714286
858,3.235411765
859,3.235470588
860,3.235260504
861,3.235608333
862,3.234865546
863,3.234663866
864,3.23397479
865,3.233739496
866,3.233016807
867,3.233283333
868,3.231983193
869,3.231697479
870,3.231941176
871,3.230957983
872,3.231408333
873,3.230361345
874,3.230428571
875,3.230470588
876,3.22887395
877,3.228
878,3.227008403
879,3.226857143
880,3.227016807
881,3.225672269
882,3.226958333
883,3.226344538
884,3.224966387
885,3.22312605
886,3.219008403
887,3.218366667
888,3.215504202
889,3.193433333
890,3.194680672
891,3.202283333
892,3.206441667
893,3.208848739
894,3.210991597
895,3.212579832
896,3.214260504
897,3.215630252
898,3.216333333
899,3.218067227
900,3.217327731
901,3.218655462
902,3.218941176
903,3.218733333
904,3.218470588
905,3.218857143
906,3.218596639
907,3.218571429
908,3.219058333
909,3.219689076
910,3.220378151
911,3.221033613
912,3.221294118
913,3.221125
914,3.221621849
915,3.222462185
916,3.222319328
917,3.22212605
918,3.222075
919,3.221915966
920,3.222445378
921,3.222109244
922,3.222453782
923,3.222516667
924,3.22189916
925,3.221915966
926,3.221571429
927,3.221741667
928,3.220857143
929,3.219613445
930,3.219420168
931,3.218319328
932,3.218183333
933,3.217756303
934,3.216462185
935,3.214605042
936,3.213613445
937,3.2116
938,3.211815126
939,3.211193277
940,3.213302521
941,3.213344538
942,3.214575
943,3.215226891
944,3.215890756
945,3.216773109
946,3.216789916
947,3.217441667
948,3.217462185
949,3.217756303
950,3.217907563
951,3.217689076
952,3.216616667
953,3.215588235
954,3.216142857
955,3.21607563
956,3.215764706
957,3.215966667
958,3.215941176
959,3.215882353
960,3.216369748
961,3.21697479
962,3.216983333
963,3.217067227
964,3.21789916
965,3.217285714
966,3.217325
967,3.217226891
968,3.216798319
969,3.217134454
970,3.216470588
971,3.216158333
972,3.216016807
973,3.216411765
974,3.216
975,3.21592437
976,3.2161
977,3.216109244
978,3.215966387
979,3.215865546
980,3.216697479
981,3.217283333
982,3.216655462
983,3.217252101
984,3.216235294
985,3.21612605
986,3.215908333
987,3.215302521
988,3.215386555
989,3.215512605
990,3.215882353
991,3.2159
992,3.245608333
993,3.264319328
994,3.259848739
995,3.257302521
996,3.2549
997,3.252596639
998,3.250630252
999,3.248537815
1000,3.250966387
1001,3.249075
1002,3.247823529
1003,3.246033613
1004,3.245016807
1005,3.244453782
1006,3.243975
1007,3.243655462
1008,3.242579832
1009,3.242983193
1010,3.243386555
1011,3.243608333
1012,3.243983193
1013,3.244159664
1014,3.243731092
1015,3.244042017
1016,3.243781513
1017,3.243316667
1018,3.243428571
1019,3.242714286
1020,3.241478992
1021,3.241092437
1022,3.2394
1023,3.237865546
1024,3.237806723
1025,3.236756303
1026,3.236319328
1027,3.236316667
1028,3.234915966
1029,3.235193277
1030,3.234436975
1031,3.234705882
1032,3.234833333
1033,3.235831933
1034,3.236428571
1035,3.237554622
1036,3.237428571
1037,3.23775
1038,3.237831933
1039,3.238327731
1040,3.238210084
1041,3.237857143
1042,3.238483333
1043,3.237731092
1044,3.236680672
1045,3.235789916
1046,3.234991597
1047,3.234512605
1048,3.234091667
1049,3.233781513
1050,3.233319328
1051,3.232537815
1052,3.230941176
1053,3.2284
1054,3.226386555
1055,3.225411765
1056,3.225428571
1057,3.226369748
1058,3.227591667
1059,3.228008403
1060,3.228983193
1061,3.229739496
1062,3.229638655
1063,3.229891667
1064,3.229226891
1065,3.229142857
1066,3.229310924
1067,3.228689076
1068,3.227680672
1069,3.227591667
1070,3.225915966
1071,3.226277311
1072,3.225815126
1073,3.225428571
1074,3.226
1075,3.225302521
1076,3.222159664
1077,3.220193277
1078,3.218453782
1079,3.217625
1080,3.216277311
1081,3.216184874
1082,3.217689076
1083,3.218991597
1084,3.220333333
1085,3.220638655
1086,3.221621849
1087,3.222327731
1088,3.222621849
1089,3.222666667
1090,3.221983193
1091,3.22092437
1092,3.220907563
1093,3.219638655
1094,3.218789916
1095,3.217558333
1096,3.217571429
1097,3.217436975
1098,3.217210084
1099,3.218487395
1100,3.218041667
1101,3.219168067
1102,3.219394958
1103,3.219588235
1104,3.219865546
1105,3.220391667
1106,3.219915966
1107,3.22087395
1108,3.221571429
1109,3.221470588
1110,3.221458333
1111,3.221462185
1112,3.221596639
1113,3.22105042
1114,3.221109244
1115,3.22135
1116,3.221092437
1117,3.220436975
1118,3.220647059
1119,3.220579832
1120,3.219975
1121,3.220663866
1122,3.219722689
1123,3.219697479
1124,3.219260504
1125,3.218756303
1126,3.217658333
1127,3.217159664
1128,3.216571429
1129,3.217151261
1130,3.217067227
1131,3.21755
1132,3.217941176
1133,3.217823529
1134,3.21794958
1135,3.218159664
1136,3.218041667
1137,3.218067227
1138,3.217571429
1139,3.21689916
1140,3.216941176
1141,3.216533333
1142,3.216512605
1143,3.215453782
1144,3.214579832
1145,3.215033613
1146,3.2141
1147,3.215361345
1148,3.214361345
1149,3.213504202
1150,3.211991597
1151,3.212327731
1152,3.211283333
1153,3.212109244
1154,3.212647059
1155,3.211615385
